{
  "results": [
    {
      "popularity": 2623.923,
      "vote_count": 1316,
      "video": false,
      "poster_path": "/aKx1ARwG55zZ0GpRvU2WrGrCG9o.jpg",
      "id": 337401,
      "adult": false,
      "backdrop_path": "/xl5oCFLVMo4d4Pgxvrf8Jmc2IlA.jpg",
      "original_language": "en",
      "original_title": "Mulan",
      "genre_ids": [
        28,
        12,
        18,
        14,
        10752
      ],
      "title": "Mulan",
      "vote_average": 7.7,
      "overview": "When the Emperor of China issues a decree that one man per family must serve in the Imperial Chinese Army to defend the country from Huns, Hua Mulan, the eldest daughter of an honored warrior, steps in to take the place of her ailing father. She is spirited, determined and quick on her feet. Disguised as a man by the name of Hua Jun, she is tested every step of the way and must harness her innermost strength and embrace her true potential.",
      "release_date": "2020-09-10"
    },
    {
      "popularity": 971.152,
      "vote_count": 180,
      "video": false,
      "poster_path": "/uOw5JD8IlD546feZ6oxbIjvN66P.jpg",
      "id": 718444,
      "adult": false,
      "backdrop_path": "/x4UkhIQuHIJyeeOTdcbZ3t3gBSa.jpg",
      "original_language": "en",
      "original_title": "Rogue",
      "genre_ids": [
        28
      ],
      "title": "Rogue",
      "vote_average": 5.9,
      "overview": "Battle-hardened O’Hara leads a lively mercenary team of soldiers on a daring mission: rescue hostages from their captors in remote Africa. But as the mission goes awry and the team is stranded, O’Hara’s squad must face a bloody, brutal encounter with a gang of rebels.",
      "release_date": "2020-08-20"
    },
    {
      "popularity": 958.335,
      "id": 581392,
      "video": false,
      "vote_count": 396,
      "vote_average": 7.2,
      "title": "Peninsula",
      "release_date": "2020-07-15",
      "original_language": "ko",
      "original_title": "반도",
      "genre_ids": [
        28,
        27,
        53
      ],
      "backdrop_path": "/gEjNlhZhyHeto6Fy5wWy5Uk3A9D.jpg",
      "adult": false,
      "overview": "A soldier and his team battle hordes of post-apocalyptic zombies in the wastelands of the Korean Peninsula",
      "poster_path": "/sy6DvAu72kjoseZEjocnm2ZZ09i.jpg"
    },
    {
      "popularity": 727.503,
      "vote_count": 1153,
      "video": false,
      "poster_path": "/TnOeov4w0sTtV2gqICqIxVi74V.jpg",
      "id": 605116,
      "adult": false,
      "backdrop_path": "/qVygtf2vU15L2yKS4Ke44U4oMdD.jpg",
      "original_language": "en",
      "original_title": "Project Power",
      "genre_ids": [
        28,
        80,
        878
      ],
      "title": "Project Power",
      "vote_average": 6.7,
      "overview": "An ex-soldier, a teen and a cop collide in New Orleans as they hunt for the source behind a dangerous new pill that grants users temporary superpowers.",
      "release_date": "2020-08-14"
    },
    {
      "popularity": 623.088,
      "vote_count": 221,
      "video": false,
      "poster_path": "/kiX7UYfOpYrMFSAGbI6j1pFkLzQ.jpg",
      "id": 613504,
      "adult": false,
      "backdrop_path": "/r5srC0cqU36n38azFnCyReEksiR.jpg",
      "original_language": "en",
      "original_title": "After We Collided",
      "genre_ids": [
        18,
        10749
      ],
      "title": "After We Collided",
      "vote_average": 7.1,
      "overview": "Tessa finds herself struggling with her complicated relationship with Hardin; she faces a dilemma that could change their lives forever.",
      "release_date": "2020-09-02"
    },
    {
      "popularity": 596.137,
      "vote_count": 250,
      "video": false,
      "poster_path": "/uGhQ2ZGBpzCj6wC5jUrybsZuPTI.jpg",
      "id": 539885,
      "adult": false,
      "backdrop_path": "/dbOqWLNWg1Xphshyus0UMSN8fFP.jpg",
      "original_language": "en",
      "original_title": "Ava",
      "genre_ids": [
        28,
        80,
        18,
        53
      ],
      "title": "Ava",
      "vote_average": 6,
      "overview": "A black ops assassin is forced to fight for her own survival after a job goes dangerously wrong.",
      "release_date": "2020-08-06"
    },
    {
      "popularity": 547.091,
      "vote_count": 71,
      "video": false,
      "poster_path": "/eDnHgozW8vfOaLHzfpHluf1GZCW.jpg",
      "id": 606234,
      "adult": false,
      "backdrop_path": "/u9YEh2xVAPVTKoaMNlB5tH6pXkm.jpg",
      "original_language": "en",
      "original_title": "Archive",
      "genre_ids": [
        878
      ],
      "title": "Archive",
      "vote_average": 5.9,
      "overview": "2038: George Almore is working on a true human-equivalent AI, and his latest prototype is almost ready. This sensitive phase is also the riskiest as he has a goal that must be hidden at all costs—being reunited with his dead wife.",
      "release_date": "2020-08-13"
    },
    {
      "popularity": 421.369,
      "vote_count": 132,
      "video": false,
      "poster_path": "/aVbqhqYtlxwEGihTEhewZAgDOCX.jpg",
      "id": 489326,
      "adult": false,
      "backdrop_path": "/dFB6Tiy3z2xRLbnEUB5ocApT5xG.jpg",
      "original_language": "en",
      "original_title": "Mortal",
      "genre_ids": [
        28,
        14,
        53
      ],
      "title": "Mortal",
      "vote_average": 6.8,
      "overview": "A young boy must discover the origins of his extraordinary powers before he is captured by authorities hell-bent on condemning him for an accidental murder.",
      "release_date": "2020-02-28"
    },
    {
      "popularity": 421.291,
      "vote_count": 76,
      "video": false,
      "poster_path": "/sDi6wKgECUjDug2gn4uODSqZ3yC.jpg",
      "id": 632618,
      "adult": false,
      "backdrop_path": "/cVdYaAQmd5DZNdo0KFJruz7JpUs.jpg",
      "original_language": "es",
      "original_title": "Crímenes de familia",
      "genre_ids": [
        80,
        18,
        53
      ],
      "title": "The Crimes That Bind",
      "vote_average": 6.9,
      "overview": "When her son is accused of raping and trying to murder his ex-wife, Alicia embarks on a journey that will change her life forever.",
      "release_date": "2020-08-20"
    },
    {
      "popularity": 397.547,
      "vote_count": 603,
      "video": false,
      "poster_path": "/jHo2M1OiH9Re33jYtUQdfzPeUkx.jpg",
      "id": 385103,
      "adult": false,
      "backdrop_path": "/fKtYXUhX5fxMxzQfyUcQW9Shik6.jpg",
      "original_language": "en",
      "original_title": "Scoob!",
      "genre_ids": [
        12,
        16,
        35,
        10751
      ],
      "title": "Scoob!",
      "vote_average": 7.4,
      "overview": "In Scooby-Doo’s greatest adventure yet, see the never-before told story of how lifelong friends Scooby and Shaggy first met and how they joined forces with young detectives Fred, Velma, and Daphne to form the famous Mystery Inc. Now, with hundreds of cases solved, Scooby and the gang face their biggest, toughest mystery ever: an evil plot to unleash the ghost dog Cerberus upon the world. As they race to stop this global “dogpocalypse,” the gang discovers that Scooby has a secret legacy and an epic destiny greater than anyone ever imagined.",
      "release_date": "2020-07-08"
    },
    {
      "popularity": 359.272,
      "vote_count": 129,
      "video": false,
      "poster_path": "/3eg0kGC2Xh0vhydJHO37Sp4cmMt.jpg",
      "id": 531499,
      "adult": false,
      "backdrop_path": "/zogWnCSztU8xvabaepQnAwsOtOt.jpg",
      "original_language": "en",
      "original_title": "The Tax Collector",
      "genre_ids": [
        28,
        80,
        18
      ],
      "title": "The Tax Collector",
      "vote_average": 6,
      "overview": "David Cuevas is a family man who works as a gangland tax collector for high ranking Los Angeles gang members. He makes collections across the city with his partner Creeper making sure people pay up or will see retaliation. An old threat returns to Los Angeles that puts everything David loves in harm’s way.",
      "release_date": "2020-08-07"
    },
    {
      "popularity": 357.586,
      "vote_count": 70,
      "video": false,
      "poster_path": "/bhNHCeJDFDaB00A46AoCw2mggdE.jpg",
      "id": 601165,
      "adult": false,
      "backdrop_path": "/nxxODhq9I05Ze9uLONGvfDrzaUO.jpg",
      "original_language": "en",
      "original_title": "Legacy of Lies",
      "genre_ids": [
        28,
        53
      ],
      "title": "Legacy of Lies",
      "vote_average": 6,
      "overview": "An ex-MI6 agent is thrown back into the world of espionage and high stakes to uncover the shocking truth about operations conducted by unknown secret services.",
      "release_date": "2020-08-06"
    },
    {
      "popularity": 356.114,
      "vote_count": 24,
      "video": false,
      "poster_path": "/Xt37loPwHjipC1qaCbfLfDcFu4.jpg",
      "id": 675490,
      "adult": false,
      "backdrop_path": "/4ZvjVXQU93SLbMy7rYu4xg2LKTt.jpg",
      "original_language": "en",
      "original_title": "The Unfamiliar",
      "genre_ids": [
        27,
        53
      ],
      "title": "The Unfamiliar",
      "vote_average": 6,
      "overview": "A British Army doctor comes back from a war, thinking that she has PTSD only to discover that there is a more daunting malevolence at work making the life that she knew unfamiliar.",
      "release_date": "2020-08-21"
    },
    {
      "popularity": 339.759,
      "vote_count": 11,
      "video": false,
      "poster_path": "/jkAZb9jteax1XRnEFlCU9Oer1YJ.jpg",
      "id": 610201,
      "adult": false,
      "backdrop_path": "/ruXHUA3KiiLEjCwvSqKuxe9O6ZQ.jpg",
      "original_language": "en",
      "original_title": "The Pale Door",
      "genre_ids": [
        27,
        37
      ],
      "title": "The Pale Door",
      "vote_average": 5.7,
      "overview": "The Dalton gang escape to a nearby town after a train robbery goes south, but they are met by a coven of witches with sinister plans for the unsuspecting outlaws.",
      "release_date": "2020-08-21"
    },
    {
      "popularity": 284.89,
      "vote_count": 142,
      "video": false,
      "poster_path": "/4V2nTPfeB59TcqJcUfQ9ziTi7VN.jpg",
      "id": 501979,
      "adult": false,
      "backdrop_path": "/oazPqs1z78LcIOFslbKtJLGlueo.jpg",
      "original_language": "en",
      "original_title": "Bill & Ted Face the Music",
      "genre_ids": [
        12,
        35,
        878
      ],
      "title": "Bill & Ted Face the Music",
      "vote_average": 6.5,
      "overview": "Yet to fulfill their rock and roll destiny, the now middle-aged best friends Bill and Ted set out on a new adventure when a visitor from the future warns them that only their song can save life as we know it. Along the way, they are helped by their daughters, a new batch of historical figures and a few music legends—to seek the song that will set their world right and bring harmony to the universe.",
      "release_date": "2020-08-27"
    },
    {
      "popularity": 281.68,
      "vote_count": 3069,
      "video": false,
      "poster_path": "/f4aul3FyD3jv3v4bul1IrkWZvzq.jpg",
      "id": 508439,
      "adult": false,
      "backdrop_path": "/xFxk4vnirOtUxpOEWgA1MCRfy6J.jpg",
      "original_language": "en",
      "original_title": "Onward",
      "genre_ids": [
        12,
        16,
        35,
        14,
        10751
      ],
      "title": "Onward",
      "vote_average": 7.9,
      "overview": "In a suburban fantasy world, two teenage elf brothers embark on an extraordinary quest to discover if there is still a little magic left out there.",
      "release_date": "2020-02-29"
    },
    {
      "popularity": 268.816,
      "vote_count": 224,
      "video": false,
      "poster_path": "/45FNxAIooJFqjsVaCJts9YJHXS4.jpg",
      "id": 340102,
      "adult": false,
      "backdrop_path": "/eCIvqa3QVCx6H09bdeOS8Al2Sqy.jpg",
      "original_language": "en",
      "original_title": "The New Mutants",
      "genre_ids": [
        28,
        12,
        27,
        878
      ],
      "title": "The New Mutants",
      "vote_average": 6,
      "overview": "Five young mutants, just discovering their abilities while held in a secret facility against their will, fight to escape their past sins and save themselves.",
      "release_date": "2020-08-26"
    },
    {
      "popularity": 267.531,
      "vote_count": 1414,
      "video": false,
      "poster_path": "/k68nPLbIST6NP96JmTxmZijEvCA.jpg",
      "id": 577922,
      "adult": false,
      "backdrop_path": "/wzJRB4MKi3yK138bJyuL9nx47y6.jpg",
      "original_language": "en",
      "original_title": "Tenet",
      "genre_ids": [
        28,
        878,
        53
      ],
      "title": "Tenet",
      "vote_average": 7.5,
      "overview": "Armed with only one word - Tenet - and fighting for the survival of the entire world, the Protagonist journeys through a twilight world of international espionage on a mission that will unfold in something beyond real time.",
      "release_date": "2020-08-22"
    },
    {
      "popularity": 256.457,
      "vote_count": 6425,
      "video": false,
      "poster_path": "/iZf0KyrE25z1sage4SYFLCCrMi9.jpg",
      "id": 530915,
      "adult": false,
      "backdrop_path": "/cqa3sa4c4jevgnEJwq3CMF8UfTG.jpg",
      "original_language": "en",
      "original_title": "1917",
      "genre_ids": [
        28,
        18,
        36,
        10752
      ],
      "title": "1917",
      "vote_average": 7.9,
      "overview": "At the height of the First World War, two young British soldiers must cross enemy territory and deliver a message that will stop a deadly attack on hundreds of soldiers.",
      "release_date": "2019-12-25"
    },
    {
      "popularity": 255.434,
      "vote_count": 1097,
      "video": false,
      "poster_path": "/7W0G3YECgDAfnuiHG91r8WqgIOe.jpg",
      "id": 446893,
      "adult": false,
      "backdrop_path": "/qsxhnirlp7y4Ae9bd11oYJSX59j.jpg",
      "original_language": "en",
      "original_title": "Trolls World Tour",
      "genre_ids": [
        12,
        16,
        35,
        14,
        10402,
        10751
      ],
      "title": "Trolls World Tour",
      "vote_average": 7.6,
      "overview": "Queen Poppy and Branch make a surprising discovery — there are other Troll worlds beyond their own, and their distinct differences create big clashes between these various tribes. When a mysterious threat puts all of the Trolls across the land in danger, Poppy, Branch, and their band of friends must embark on an epic quest to create harmony among the feuding Trolls to unite them against certain doom.",
      "release_date": "2020-03-12"
    }
  ],
  "page": 1,
  "total_results": 1009,
  "dates": {
    "maximum": "2020-09-18",
    "minimum": "2020-08-01"
  },
  "total_pages": 51
}